{
    "id": "Reboot+",
    "name": "Reboot+ Exam",
    "sortOrder": 2,
    "partstext": "This quiz [2] is divided into 2 parts. [RBT-369] and [RBT-372] Curabitur sed mauris odio. Cum sociis natoque penatibus et magnis dis parturient montes, nascetur ridiculus mus. Aliquam sem diam, bibendum nec rutrum eget, tempor vel purus.",
    "parts": [
        {
            "id": "part1",
            "title": "Reboot + Part 1",
            "objectives": [
                {
                    "title": "Reboot + RBT-369",
                    "content": [
                        "<p>",
                        "Iusto cui lobortis tation ingenium ibidem lucidus dignissim. Genitus consectetuer usitas minim nobis aliquip modo commodo.",
                        "<ul>",
                        "<li><span class='qtooltip' data-toggle='tooltip' title='Genitus consectetuer usitas minim nobis aliquip modo commodo'>list item 1</span></li>",
                        "<li>list item 2</li><li>list item 3</li><li>list item 4</li></ul>",
                        "</p>",
                        "<p>",
                        "Sagaciter zelus minim vulputate. <span class='qtooltip' data-toggle='tooltip' title='Genitus consectetuer usitas minim nobis aliquip modo commodo'>Aptent modo vero facilisi</span>. Brevitas minim proprius refero nulla commoveo illum uxor paratus. Vel mos et conventio roto caecus velit exerci accumsan delenit iriure. Feugiat dignissim consequat vel neo quae letatio.",
                        "</p>"
                    ]
                }
            ],
            "questions": [
                {
                    "question": "VM CPU is at 100% and you'r jumpbox creds be broken! What do you do?",
                    "image": "https://upload.wikimedia.org/wikipedia/en/3/37/Reboottitlecard.gif",
                    "choices": [
                        "Reboot!",
                        "Wait",
                        "Shut down",
                        "rm-rf *",
                        "Reinstall from ISO"
                    ],
                    "correct": [
                        "Reboot!"
                    ],
                    "explanation": "Reboot that virtual machine man."
                },
                {
                    "question": "It says in the run book to reboot! What do you do?",
                    "image": "https://upload.wikimedia.org/wikipedia/en/3/37/Reboottitlecard.gif",
                    "choices": [
                        "Ask a lead",
                        "Reboot!",
                        "Shut down",
                        "Reinstall!",
                        "Post in slack"
                    ],
                    "correct": [
                        "Reboot!"
                    ],
                    "explanation": "Reboot it!"
                },
                {
                    "question": "Datacenter advanced power system has teh blue screen, but power is still on, what do you do?",
                    "image": "https://upload.wikimedia.org/wikipedia/en/3/37/Reboottitlecard.gif",
                    "choices": [
                        "Reboot!",
                        "Contact L3 On-Call",
                        "Turn off main breaker",
                        "Go home",
                        "Read the friendly manual"
                    ],
                    "correct": [
                        "Reboot!"
                    ],
                    "explanation": "The reboot way is the right way"
                },
                {
                    "question": "Something went wrong, what do you do? ( choose two )",
                    "image": "",
                    "choices": [
                        "Re",
                        "shutdown -k",
                        "boot!",
                        "shutdown -P",
                        "shutdown -H"
                    ],
                    "correct": [
                        "Re",
                        "boot!"
                    ],
                    "explanation": "Put them together & Reboot!"
                },
                {
                    "question": "Which of the following is the correct command?",
                    "image": "",
                    "choices": [
                        "reboot",
                        "init 0",
                        "uname -a",
                        "finger",
                        "ifconfig"
                    ],
                    "correct": [
                        "reboot"
                    ],
                    "explanation": "reboot is the most correct"
                },
                {
                    "question": "Type the command to reboot a linux system. ( multiple ways to answer this )",
                    "image": "https://upload.wikimedia.org/wikipedia/en/3/37/Reboottitlecard.gif",
                    "choices": [ ],
                    "correct": [
                        "reboot",
                        "shutdown -r",
                        "init 6",
                        "sudo reboot",
                        "sudo shutdown -r now",
                        "systemctl reboot",
                        "/sbin/shutdown -r now",
                        "/sbin/reboot",
                        "sudo shutdown -r",
                        "/sbin/shutdown -r now",
                        "shutdown -r now",
                        "reboot -f",
                        "/sbin/telinit 6",
                        "telinit 6"
                    ],
                    "explanation": "many paths of the reboot"
                },
                {
                    "question": "How do you reboot in 5 minutes? No broadcast message. ( multiple ways to answere )",
                    "image": "https://upload.wikimedia.org/wikipedia/en/3/37/Reboottitlecard.gif",
                    "choices": [ ],
                    "correct": [
                        "shutdown -r +5",
                        "sudo shutdown -r +5",
                        "sudo shutdown -r 5",
                        "shutdown -r 5",
                        "/sbin/shutdown -r 5",
                        "/sbin/shutdown -r +5",
                        "sleep 300 && reboot",
                        "sleep 300 && shutdown -r 5",
                        "sleep 300 && shutdown -r +5",
                        "sleep 5m && reboot",
                        "sleep 5m && shutdown -r 5",
                        "sleep 5m && shutdown -r +5"
                    ],
                    "explanation": "gives you time to run away"
                }
            ]
        },
        {
            "id": "part2",
            "title": "Reboot + Part 2",
            "objectives": [
                {
                    "title": "Reboot + Part two [RBT-372] things are about to get crazy!",
                    "content": [
                        "<p>",
                        "Iusto cui lobortis tation ingenium ibidem lucidus dignissim. Genitus consectetuer usitas minim nobis aliquip modo commodo.",
                        "<ul>",
                        "<li><span class='qtooltip' data-toggle='tooltip' title='Genitus consectetuer usitas minim nobis aliquip modo commodo'>list item 1</span></li>",
                        "<li>list item 2</li><li>list item 3</li><li>list item 4</li></ul>",
                        "</p>",
                        "<p>",
                        "Sagaciter zelus minim vulputate. <span class='qtooltip' data-toggle='tooltip' title='Genitus consectetuer usitas minim nobis aliquip modo commodo'>Aptent modo vero facilisi</span>. Brevitas minim proprius refero nulla commoveo illum uxor paratus. Vel mos et conventio roto caecus velit exerci accumsan delenit iriure. Feugiat dignissim consequat vel neo quae letatio.",
                        "</p>"
                    ]
                },
                {
                    "title": "Answer carefully, this is important!",
                    "content": [
                        "<p>",
                        "Iusto cui lobortis tation ingenium ibidem lucidus dignissim. Genitus consectetuer usitas minim nobis aliquip modo commodo.",
                        "<ul>",
                        "<li><span class='qtooltip' data-toggle='tooltip' title='Genitus consectetuer usitas minim nobis aliquip modo commodo'>list item 1</span></li>",
                        "<li>list item 2</li><li>list item 3</li><li>list item 4</li></ul>",
                        "</p>",
                        "<p>",
                        "Sagaciter zelus minim vulputate. <span class='qtooltip' data-toggle='tooltip' title='Genitus consectetuer usitas minim nobis aliquip modo commodo'>Aptent modo vero facilisi</span>. Brevitas minim proprius refero nulla commoveo illum uxor paratus. Vel mos et conventio roto caecus velit exerci accumsan delenit iriure. Feugiat dignissim consequat vel neo quae letatio.",
                        "</p>"
                    ]
                }
            ],
            "questions": [
                {
                    "question": "How do you reboot quickly and ungracefully in FreeBSD ( choose two )?",
                    "image": "https://upload.wikimedia.org/wikipedia/en/3/37/Reboottitlecard.gif",
                    "choices": [
                        "reboot -q",
                        "reboot -d",
                        "reboot -n",
                        "reboot -r",
                        "fastboot -q"
                    ],
                    "correct": [
                        "reboot -q",
                        "fastboot -q"

                    ],
                    "explanation": "Q is for quickness, not nessisarally grace"
                },
                {
                    "question": "Reboot a server remotely? ( choose three )",
                    "image": "https://upload.wikimedia.org/wikipedia/en/3/37/Reboottitlecard.gif",
                    "choices": [
                        "ssh root@webserver.nixcraft.net reboot",
                        "ssh root@webserver.nixcraft.net shutdown -r",
                        "ssh root@webserver.nixcraft.net init 6",
                        "nmap root@webserver.nixcraft.net reboot",
                        "sftp root@webserver.nixcraft.net reboot now"
                    ],
                    "correct": [
                        "ssh root@webserver.nixcraft.net shutdown -r",
                        "ssh root@webserver.nixcraft.net reboot",
                        "ssh root@webserver.nixcraft.net init 6"
                    ],
                    "explanation": "Reboot from anywhere, anytime."
                },
                {
                    "question": "Ah dang! /dev/sda dropped right off the SATA bus, Reboot command got me: Command not found. As a reboot master, what do you do? ( choose two )",
                    "image": "https://upload.wikimedia.org/wikipedia/en/3/37/Reboottitlecard.gif",
                    "choices": [
                        "echo 1 > /proc/sys/kernel/sysrq && echo b > /proc/sysrq-trigger",
                        "ALT + PrintScreen + B",
                        "ALT + F13",
                        "echo 0 > /proc/sys/kernel/sysrq && echo b > /proc/sysrq-trigger",
                        "sudo init 7"
                    ],
                    "correct": [
                        "echo 1 > /proc/sys/kernel/sysrq && echo b > /proc/sysrq-trigger",
                        "ALT + PrintScreen + B"
                    ],
                    "explanation": "Things are getting crazy!"
                },
                {
                    "question": "You are underwater, remotely connected to your webserver. You've already run the sudo reboot command, and the system says it is going down for a reboot now, but nothing happens and the shell is still active, how can you force the reboot? ( choose two )",
                    "image": "",
                    "choices": [
                        "reboot -f",
                        "echo b > /proc/sysrq-trigger",
                        "shutdown -f",
                        "reboot",
                        "reboot +9000"
                    ],
                    "correct": [
                      "reboot -f",
                      "echo b > /proc/sysrq-trigger"
                    ],
                    "explanation": "Things are getting crazy!"
                },
                {
                    "question": "What init runlevel reboots the system?",
                    "image": "",
                    "choices": [
                        "6",
                        "2",
                        "3",
                        "4",
                        "1"
                    ],
                    "correct": [
                        "6"
                    ],
                    "explanation": "The init 6 command gracefully reboots the system running all the K* shutdown scripts first, before rebooting."
                },
                {
                    "question": "what is the greatest command in the universe? ( all lower case )",
                    "image": "https://upload.wikimedia.org/wikipedia/en/3/37/Reboottitlecard.gif",
                    "choices": [ ],
                    "correct": [
                        "reboot"
                    ],
                    "explanation": "The reboot command is the most great command!"
                },
                {
                    "question": "What file is the current runlevel read from in linux?",
                    "image": "https://upload.wikimedia.org/wikipedia/en/3/37/Reboottitlecard.gif",
                    "choices": [ ],
                    "correct": [
                        "/var/run/utmp"
                    ],
                    "explanation": "This file will also be updated with the runlevel record being replaced by a shutdown time record."
                }
            ]
        }
    ]

}
